%YAML 1.1
%TAG !u! tag:unity3d.com,2011:
--- !u!114 &11400000
MonoBehaviour:
  m_ObjectHideFlags: 0
  m_CorrespondingSourceObject: {fileID: 0}
  m_PrefabInstance: {fileID: 0}
  m_PrefabAsset: {fileID: 0}
  m_GameObject: {fileID: 0}
  m_Enabled: 1
  m_EditorHideFlags: 0
  m_Script: {fileID: 11500000, guid: 8d886a1442b1efd4f9f1987ceb4b6ee4, type: 3}
  m_Name: Composite Shape Factory
  m_EditorClassIdentifier: 
  recycle: 1
  prefabs:
  - {fileID: 112848600647609237, guid: 5c54ef7816ff09a41af67246dd25473e, type: 3}
  - {fileID: 5462625573831034215, guid: e034830a27e709c44a6cdb9bc179885b, type: 3}
  - {fileID: 4603866172959030569, guid: 3c3da93b7f7275d4f9e781ab75c955f0, type: 3}
  materials:
  - {fileID: 2100000, guid: 9bc262fedbeb26b43825e0ed1f2895d9, type: 2}
  - {fileID: 2100000, guid: d64fd63e64622824b8334ea7c7c27213, type: 2}
  - {fileID: 2100000, guid: 766356034d2a24a4f992d231a9b80bac, type: 2}
